{
  "npmScope": "rikiki",
  "affected": {
    "defaultBase": "master"
  },
  "implicitDependencies": {
    "workspace.json": "*",
    "package.json": {
      "dependencies": "*",
      "devDependencies": "*"
    },
    "tslint.json": "*",
    "nx.json": "*",
    "tsconfig.base.json": "*"
  },
  "tasksRunnerOptions": {
    "default": {
      "runner": "@nrwl/workspace/tasks-runners/default",
      "options": {
        "cacheableOperations": ["build", "lint", "test", "e2e"]
      }
    }
  },
  "projects": {
    "api": {
      "tags": []
    },
    "spa": {
      "tags": [],
      "implicitDependencies": ["api"]
    },
    "spa-e2e": {
      "tags": [],
      "implicitDependencies": ["spa"]
    },
    "models": {
      "tags": []
    },
    "redirect": {
      "tags": []
    }
  }
}
